EESchema Schematic File Version 2
LIBS:power
LIBS:device
LIBS:transistors
LIBS:conn
LIBS:linear
LIBS:regul
LIBS:74xx
LIBS:cmos4000
LIBS:adc-dac
LIBS:memory
LIBS:xilinx
LIBS:microcontrollers
LIBS:dsp
LIBS:microchip
LIBS:analog_switches
LIBS:motorola
LIBS:texas
LIBS:intel
LIBS:audio
LIBS:interface
LIBS:digital-audio
LIBS:philips
LIBS:display
LIBS:cypress
LIBS:siliconi
LIBS:opto
LIBS:atmel
LIBS:contrib
LIBS:valves
LIBS:TEENSYPP2
LIBS:Optrex_DMC20261
LIBS:L298
LIBS:basic_symbols
LIBS:breakbeam
LIBS:Linear_Timelapse_Robot_v1-cache
EELAYER 25 0
EELAYER END
$Descr User 7874 5906
encoding utf-8
Sheet 4 5
Title "Linear Timelapse Robot 1 Motor Interface"
Date ""
Rev "1"
Comp "Soleil Lapierre"
Comment1 ""
Comment2 ""
Comment3 ""
Comment4 ""
$EndDescr
$Comp
L TEENSYPP2 U1
U 1 1 5595F4C2
P 2050 2000
F 0 "U1" H 2050 1900 50  0000 C CNN
F 1 "TEENSYPP2" H 2050 2100 50  0000 C CNN
F 2 "MODULE" H 2050 2000 50  0001 C CNN
F 3 "DOCUMENTATION" H 2050 2000 50  0001 C CNN
	1    2050 2000
	1    0    0    -1  
$EndComp
$Comp
L L298N U6
U 1 1 5595FB04
P 4700 3150
F 0 "U6" H 4900 3850 60  0000 C CNN
F 1 "L298N" H 5000 3750 60  0000 C CNN
F 2 "" H 5000 3750 60  0000 C CNN
F 3 "" H 5000 3750 60  0000 C CNN
	1    4700 3150
	1    0    0    -1  
$EndComp
$Comp
L VCC #PWR10
U 1 1 5596069B
P 3800 2050
F 0 "#PWR10" H 3800 1900 50  0001 C CNN
F 1 "VCC" H 3800 2200 50  0000 C CNN
F 2 "" H 3800 2050 60  0000 C CNN
F 3 "" H 3800 2050 60  0000 C CNN
	1    3800 2050
	1    0    0    -1  
$EndComp
$Comp
L C C1
U 1 1 559606B3
P 3800 2300
F 0 "C1" H 3825 2400 50  0000 L CNN
F 1 "0.1uF" H 3825 2200 50  0000 L CNN
F 2 "" H 3838 2150 30  0000 C CNN
F 3 "" H 3800 2300 60  0000 C CNN
	1    3800 2300
	1    0    0    -1  
$EndComp
$Comp
L GNDREF #PWR11
U 1 1 55960724
P 3800 2450
F 0 "#PWR11" H 3800 2200 50  0001 C CNN
F 1 "GNDREF" H 3800 2300 50  0000 C CNN
F 2 "" H 3800 2450 60  0000 C CNN
F 3 "" H 3800 2450 60  0000 C CNN
	1    3800 2450
	1    0    0    -1  
$EndComp
$Comp
L +12V #PWR13
U 1 1 55960776
P 5300 2050
F 0 "#PWR13" H 5300 1900 50  0001 C CNN
F 1 "+12V" H 5300 2190 50  0000 C CNN
F 2 "" H 5300 2050 60  0000 C CNN
F 3 "" H 5300 2050 60  0000 C CNN
	1    5300 2050
	1    0    0    -1  
$EndComp
$Comp
L C C2
U 1 1 55960793
P 5300 2300
F 0 "C2" H 5325 2400 50  0000 L CNN
F 1 "0.1uF" H 5325 2200 50  0000 L CNN
F 2 "" H 5338 2150 30  0000 C CNN
F 3 "" H 5300 2300 60  0000 C CNN
	1    5300 2300
	1    0    0    -1  
$EndComp
$Comp
L GNDREF #PWR14
U 1 1 55960801
P 5300 2450
F 0 "#PWR14" H 5300 2200 50  0001 C CNN
F 1 "GNDREF" H 5300 2300 50  0000 C CNN
F 2 "" H 5300 2450 60  0000 C CNN
F 3 "" H 5300 2450 60  0000 C CNN
	1    5300 2450
	1    0    0    -1  
$EndComp
$Comp
L GNDREF #PWR12
U 1 1 55960869
P 4650 3950
F 0 "#PWR12" H 4650 3700 50  0001 C CNN
F 1 "GNDREF" H 4650 3800 50  0000 C CNN
F 2 "" H 4650 3950 60  0000 C CNN
F 3 "" H 4650 3950 60  0000 C CNN
	1    4650 3950
	1    0    0    -1  
$EndComp
Wire Wire Line
	3800 2050 3800 2150
Wire Wire Line
	4600 2100 4600 2450
Wire Wire Line
	3800 2100 4600 2100
Connection ~ 3800 2100
Wire Wire Line
	4750 2100 4750 2450
Wire Wire Line
	5300 2150 5300 2050
Wire Wire Line
	4750 2100 6150 2100
Connection ~ 5300 2100
Wire Wire Line
	4650 3850 4650 3950
Connection ~ 4650 3850
Wire Wire Line
	4150 3450 4100 3450
Wire Wire Line
	4100 3450 4100 2100
Connection ~ 4100 2100
Wire Wire Line
	4150 3350 4100 3350
Connection ~ 4100 3350
Wire Wire Line
	4150 2950 4100 2950
Connection ~ 4100 2950
Wire Wire Line
	4150 3050 4000 3050
Wire Wire Line
	4000 3050 4000 3850
Wire Wire Line
	4000 3850 4650 3850
Wire Wire Line
	4150 3250 4000 3250
Connection ~ 4000 3250
Wire Wire Line
	4150 3550 4000 3550
Connection ~ 4000 3550
$Comp
L D D1
U 1 1 55960D57
P 5850 2550
F 0 "D1" H 5850 2650 50  0000 C CNN
F 1 "1N5821" H 5850 2450 50  0000 C CNN
F 2 "" H 5850 2550 60  0000 C CNN
F 3 "" H 5850 2550 60  0000 C CNN
	1    5850 2550
	0    1    1    0   
$EndComp
$Comp
L D D3
U 1 1 55960DAA
P 6150 2550
F 0 "D3" H 6150 2650 50  0000 C CNN
F 1 "1N5821" H 6150 2450 50  0000 C CNN
F 2 "" H 6150 2550 60  0000 C CNN
F 3 "" H 6150 2550 60  0000 C CNN
	1    6150 2550
	0    1    1    0   
$EndComp
$Comp
L D D2
U 1 1 55960DD3
P 5850 3300
F 0 "D2" H 5850 3400 50  0000 C CNN
F 1 "1N5821" H 5850 3200 50  0000 C CNN
F 2 "" H 5850 3300 60  0000 C CNN
F 3 "" H 5850 3300 60  0000 C CNN
	1    5850 3300
	0    1    1    0   
$EndComp
$Comp
L D D4
U 1 1 55960E1A
P 6150 3300
F 0 "D4" H 6150 3400 50  0000 C CNN
F 1 "1N5821" H 6150 3200 50  0000 C CNN
F 2 "" H 6150 3300 60  0000 C CNN
F 3 "" H 6150 3300 60  0000 C CNN
	1    6150 3300
	0    1    1    0   
$EndComp
$Comp
L DC_Motor M1
U 1 1 5596101E
P 7050 2900
F 0 "M1" H 7050 2900 60  0000 C CNN
F 1 "DC_Motor" H 7050 2800 60  0001 C CNN
F 2 "" H 7050 2800 60  0000 C CNN
F 3 "" H 7050 2800 60  0000 C CNN
	1    7050 2900
	1    0    0    -1  
$EndComp
Wire Wire Line
	5200 2800 6650 2800
Wire Wire Line
	6650 2800 6650 2450
Wire Wire Line
	6650 2450 7050 2450
Wire Wire Line
	5200 3000 6650 3000
Wire Wire Line
	6650 3000 6650 3350
Wire Wire Line
	6650 3350 7050 3350
Wire Wire Line
	5850 2700 5850 3150
Connection ~ 5850 2800
Wire Wire Line
	6150 2700 6150 3150
Connection ~ 6150 3000
$Comp
L GNDREF #PWR15
U 1 1 559611B0
P 6000 3600
F 0 "#PWR15" H 6000 3350 50  0001 C CNN
F 1 "GNDREF" H 6000 3450 50  0000 C CNN
F 2 "" H 6000 3600 60  0000 C CNN
F 3 "" H 6000 3600 60  0000 C CNN
	1    6000 3600
	1    0    0    -1  
$EndComp
Wire Wire Line
	5850 3450 5850 3500
Wire Wire Line
	5850 3500 6150 3500
Wire Wire Line
	6150 3500 6150 3450
Wire Wire Line
	6000 3600 6000 3500
Connection ~ 6000 3500
Wire Wire Line
	6150 2100 6150 2400
Wire Wire Line
	5850 2400 5850 2100
Connection ~ 5850 2100
$Comp
L OPB917BOCZ U5
U 1 1 559621DB
P 1200 4400
F 0 "U5" H 950 4900 60  0000 C CNN
F 1 "OPB917BOCZ" H 1200 4800 60  0000 C CNN
F 2 "" H 1200 4800 60  0000 C CNN
F 3 "" H 1200 4800 60  0000 C CNN
	1    1200 4400
	1    0    0    -1  
$EndComp
$Comp
L R R1
U 1 1 55962232
P 750 3700
F 0 "R1" V 830 3700 50  0000 C CNN
F 1 "1k" V 750 3700 50  0000 C CNN
F 2 "" V 680 3700 30  0000 C CNN
F 3 "" H 750 3700 30  0000 C CNN
	1    750  3700
	1    0    0    -1  
$EndComp
$Comp
L VCC #PWR8
U 1 1 559622AC
P 1250 3500
F 0 "#PWR8" H 1250 3350 50  0001 C CNN
F 1 "VCC" H 1250 3650 50  0000 C CNN
F 2 "" H 1250 3500 60  0000 C CNN
F 3 "" H 1250 3500 60  0000 C CNN
	1    1250 3500
	1    0    0    -1  
$EndComp
Wire Wire Line
	750  3550 2000 3550
Wire Wire Line
	1250 3550 1250 3500
Wire Wire Line
	2000 3550 2000 4150
Connection ~ 1250 3550
Wire Wire Line
	2000 4300 2300 4300
$Comp
L GNDREF #PWR9
U 1 1 559626B7
P 1300 5200
F 0 "#PWR9" H 1300 4950 50  0001 C CNN
F 1 "GNDREF" H 1300 5050 50  0000 C CNN
F 2 "" H 1300 5200 60  0000 C CNN
F 3 "" H 1300 5200 60  0000 C CNN
	1    1300 5200
	1    0    0    -1  
$EndComp
Wire Wire Line
	750  5050 750  5100
Wire Wire Line
	750  5100 2000 5100
Wire Wire Line
	1300 5100 1300 5200
Wire Wire Line
	2000 5100 2000 4700
Connection ~ 1300 5100
Text Notes 1850 4500 0    60   ~ 0
Breakbeam Rotation Sensor
Wire Wire Line
	2300 4300 2300 3650
Wire Wire Line
	2300 3650 3400 3650
Wire Wire Line
	3400 3650 3400 2950
Wire Wire Line
	3400 2750 4150 2750
Wire Wire Line
	4150 2850 3400 2850
$EndSCHEMATC
