EESchema Schematic File Version 2
LIBS:power
LIBS:device
LIBS:transistors
LIBS:conn
LIBS:linear
LIBS:regul
LIBS:74xx
LIBS:cmos4000
LIBS:adc-dac
LIBS:memory
LIBS:xilinx
LIBS:microcontrollers
LIBS:dsp
LIBS:microchip
LIBS:analog_switches
LIBS:motorola
LIBS:texas
LIBS:intel
LIBS:audio
LIBS:interface
LIBS:digital-audio
LIBS:philips
LIBS:display
LIBS:cypress
LIBS:siliconi
LIBS:opto
LIBS:atmel
LIBS:contrib
LIBS:valves
LIBS:TEENSYPP2
LIBS:Optrex_DMC20261
LIBS:L298
LIBS:basic_symbols
LIBS:breakbeam
LIBS:Linear_Timelapse_Robot_v1-cache
EELAYER 25 0
EELAYER END
$Descr User 7874 5906
encoding utf-8
Sheet 5 5
Title "Linear Timelapse Robot 1 Power Supply"
Date ""
Rev "1"
Comp "Soleil Lapierre"
Comment1 ""
Comment2 ""
Comment3 ""
Comment4 ""
$EndDescr
$Comp
L Battery BT1
U 1 1 55962DB3
P 1400 2450
F 0 "BT1" H 1500 2500 50  0000 L CNN
F 1 "12V SLA Battery" H 1500 2400 50  0000 L CNN
F 2 "" V 1400 2490 60  0000 C CNN
F 3 "" V 1400 2490 60  0000 C CNN
	1    1400 2450
	1    0    0    -1  
$EndComp
$Comp
L FUSE F1
U 1 1 55962E59
P 1850 2000
F 0 "F1" H 1950 2050 50  0000 C CNN
F 1 "3A FUSE" H 1750 1950 50  0000 C CNN
F 2 "" H 1850 2000 60  0000 C CNN
F 3 "" H 1850 2000 60  0000 C CNN
	1    1850 2000
	1    0    0    -1  
$EndComp
$Comp
L JACK_2P J1
U 1 1 55962E96
P 2100 1150
F 0 "J1" H 1750 950 50  0000 C CNN
F 1 "JACK_2P" H 1950 1400 50  0000 C CNN
F 2 "" H 2100 1150 60  0000 C CNN
F 3 "" H 2100 1150 60  0000 C CNN
	1    2100 1150
	1    0    0    1   
$EndComp
$Comp
L GNDREF #PWR16
U 1 1 55962F3D
P 1400 2600
F 0 "#PWR16" H 1400 2350 50  0001 C CNN
F 1 "GNDREF" H 1400 2450 50  0000 C CNN
F 2 "" H 1400 2600 60  0000 C CNN
F 3 "" H 1400 2600 60  0000 C CNN
	1    1400 2600
	1    0    0    -1  
$EndComp
$Comp
L GNDREF #PWR17
U 1 1 55962F68
P 2550 1400
F 0 "#PWR17" H 2550 1150 50  0001 C CNN
F 1 "GNDREF" H 2550 1250 50  0000 C CNN
F 2 "" H 2550 1400 60  0000 C CNN
F 3 "" H 2550 1400 60  0000 C CNN
	1    2550 1400
	-1   0    0    -1  
$EndComp
Wire Wire Line
	2550 1400 2550 1300
Wire Wire Line
	1600 2000 1400 2000
Wire Wire Line
	1400 2000 1400 2300
Text Notes 2250 1550 2    60   ~ 0
Battery Charger Jack
$Comp
L DC_Motor M2
U 1 1 5596320D
P 4000 2700
F 0 "M2" H 4000 2700 60  0000 C CNN
F 1 "DC_Motor" H 4000 2600 60  0001 C CNN
F 2 "" H 4000 2600 60  0000 C CNN
F 3 "" H 4000 2600 60  0000 C CNN
	1    4000 2700
	1    0    0    -1  
$EndComp
$Comp
L GNDREF #PWR18
U 1 1 5596325C
P 4000 3150
F 0 "#PWR18" H 4000 2900 50  0001 C CNN
F 1 "GNDREF" H 4000 3000 50  0000 C CNN
F 2 "" H 4000 3150 60  0000 C CNN
F 3 "" H 4000 3150 60  0000 C CNN
	1    4000 3150
	1    0    0    -1  
$EndComp
Text Notes 4250 2800 0    60   ~ 0
12V Fan
$Comp
L +12V #PWR19
U 1 1 559633A9
P 5300 2100
F 0 "#PWR19" H 5300 1950 50  0001 C CNN
F 1 "+12V" H 5300 2240 50  0000 C CNN
F 2 "" H 5300 2100 60  0000 C CNN
F 3 "" H 5300 2100 60  0000 C CNN
	1    5300 2100
	0    1    1    0   
$EndComp
Wire Wire Line
	2850 2100 5300 2100
Wire Wire Line
	4000 2250 4000 2100
Connection ~ 4000 2100
$Comp
L LM7805 U7
U 1 1 559633E5
P 5500 2700
F 0 "U7" H 5650 2504 60  0000 C CNN
F 1 "LM7805" H 5500 2900 60  0000 C CNN
F 2 "" H 5500 2700 60  0000 C CNN
F 3 "" H 5500 2700 60  0000 C CNN
	1    5500 2700
	1    0    0    -1  
$EndComp
Wire Wire Line
	5100 2100 5100 2800
Connection ~ 5100 2100
$Comp
L GNDREF #PWR20
U 1 1 5596345F
P 5500 3300
F 0 "#PWR20" H 5500 3050 50  0001 C CNN
F 1 "GNDREF" H 5500 3150 50  0000 C CNN
F 2 "" H 5500 3300 60  0000 C CNN
F 3 "" H 5500 3300 60  0000 C CNN
	1    5500 3300
	1    0    0    -1  
$EndComp
$Comp
L C C3
U 1 1 5596347F
P 5100 2950
F 0 "C3" H 5125 3050 50  0000 L CNN
F 1 "0.1uF" H 5125 2850 50  0000 L CNN
F 2 "" H 5138 2800 30  0000 C CNN
F 3 "" H 5100 2950 60  0000 C CNN
	1    5100 2950
	1    0    0    -1  
$EndComp
$Comp
L C C4
U 1 1 559634BE
P 5900 2950
F 0 "C4" H 5925 3050 50  0000 L CNN
F 1 "0.1uF" H 5925 2850 50  0000 L CNN
F 2 "" H 5938 2800 30  0000 C CNN
F 3 "" H 5900 2950 60  0000 C CNN
	1    5900 2950
	1    0    0    -1  
$EndComp
$Comp
L VCC #PWR21
U 1 1 55963599
P 6350 2650
F 0 "#PWR21" H 6350 2500 50  0001 C CNN
F 1 "VCC" H 6350 2800 50  0000 C CNN
F 2 "" H 6350 2650 60  0000 C CNN
F 3 "" H 6350 2650 60  0000 C CNN
	1    6350 2650
	0    1    1    0   
$EndComp
Wire Wire Line
	6350 2650 5900 2650
Wire Wire Line
	5900 2650 5900 2800
Wire Wire Line
	5900 3100 5900 3200
Wire Wire Line
	5900 3200 5100 3200
Wire Wire Line
	5100 3200 5100 3100
Connection ~ 5100 2650
Wire Wire Line
	5500 2950 5500 3300
Connection ~ 5500 3200
Wire Wire Line
	2250 2000 2100 2000
Connection ~ 5900 2650
$Comp
L Switch_SPDT_x2 SW2
U 1 1 5598602C
P 2550 2000
F 0 "SW2" H 2350 2150 50  0000 C CNN
F 1 "Switch_SPDT_x2" H 2300 1850 50  0000 C CNN
F 2 "" H 2550 2000 60  0000 C CNN
F 3 "" H 2550 2000 60  0000 C CNN
	1    2550 2000
	1    0    0    -1  
$EndComp
Text Notes 2850 2300 0    60   ~ 0
On
Text Notes 2900 1850 0    60   ~ 0
Off / Charge
Wire Wire Line
	2850 1900 2850 1050
Wire Wire Line
	2850 1050 2550 1050
$EndSCHEMATC
