EESchema Schematic File Version 2
LIBS:power
LIBS:device
LIBS:transistors
LIBS:conn
LIBS:linear
LIBS:regul
LIBS:74xx
LIBS:cmos4000
LIBS:adc-dac
LIBS:memory
LIBS:xilinx
LIBS:microcontrollers
LIBS:dsp
LIBS:microchip
LIBS:analog_switches
LIBS:motorola
LIBS:texas
LIBS:intel
LIBS:audio
LIBS:interface
LIBS:digital-audio
LIBS:philips
LIBS:display
LIBS:cypress
LIBS:siliconi
LIBS:opto
LIBS:atmel
LIBS:contrib
LIBS:valves
LIBS:TEENSYPP2
LIBS:Optrex_DMC20261
LIBS:L298
LIBS:basic_symbols
LIBS:breakbeam
LIBS:Linear_Timelapse_Robot_v1-cache
EELAYER 25 0
EELAYER END
$Descr User 7874 5906
encoding utf-8
Sheet 2 5
Title "Linear Timelapse Robot 1 LCD I/O and Camera Control"
Date ""
Rev "1"
Comp "Soleil Lapierre"
Comment1 ""
Comment2 ""
Comment3 ""
Comment4 ""
$EndDescr
$Comp
L TEENSYPP2 U1
U 1 1 5591F41F
P 2850 2100
F 0 "U1" H 2850 2000 50  0000 C CNN
F 1 "TEENSYPP2" H 2850 2200 50  0000 C CNN
F 2 "MODULE" H 2850 2100 50  0001 C CNN
F 3 "DOCUMENTATION" H 2850 2100 50  0001 C CNN
	1    2850 2100
	-1   0    0    -1  
$EndComp
$Comp
L Optrex_DMC20261 U2
U 1 1 5591F42C
P 5650 2450
F 0 "U2" H 5800 3200 60  0000 C CNN
F 1 "Optrex_DMC20261" V 5950 2300 60  0000 C CNN
F 2 "" V 5950 2300 60  0000 C CNN
F 3 "" V 5950 2300 60  0000 C CNN
	1    5650 2450
	1    0    0    -1  
$EndComp
$Comp
L VCC #PWR5
U 1 1 5591F433
P 5950 1550
F 0 "#PWR5" H 5950 1400 50  0001 C CNN
F 1 "VCC" H 5950 1700 50  0000 C CNN
F 2 "" H 5950 1550 60  0000 C CNN
F 3 "" H 5950 1550 60  0000 C CNN
	1    5950 1550
	1    0    0    -1  
$EndComp
$Comp
L GNDREF #PWR4
U 1 1 5591F439
P 5650 3250
F 0 "#PWR4" H 5650 3000 50  0001 C CNN
F 1 "GNDREF" H 5650 3100 50  0000 C CNN
F 2 "" H 5650 3250 60  0000 C CNN
F 3 "" H 5650 3250 60  0000 C CNN
	1    5650 3250
	1    0    0    -1  
$EndComp
$Comp
L POT RV1
U 1 1 5591F43F
P 6200 2100
F 0 "RV1" H 6200 2000 50  0000 C CNN
F 1 "4.7k" H 6200 2100 50  0000 C CNN
F 2 "" H 6200 2100 60  0000 C CNN
F 3 "" H 6200 2100 60  0000 C CNN
	1    6200 2100
	0    -1   -1   0   
$EndComp
$Comp
L GNDREF #PWR6
U 1 1 5591F446
P 6200 2400
F 0 "#PWR6" H 6200 2150 50  0001 C CNN
F 1 "GNDREF" H 6200 2250 50  0000 C CNN
F 2 "" H 6200 2400 60  0000 C CNN
F 3 "" H 6200 2400 60  0000 C CNN
	1    6200 2400
	1    0    0    -1  
$EndComp
$Comp
L GNDREF #PWR2
U 1 1 5591F453
P 4200 3800
F 0 "#PWR2" H 4200 3550 50  0001 C CNN
F 1 "GNDREF" H 4200 3650 50  0000 C CNN
F 2 "" H 4200 3800 60  0000 C CNN
F 3 "" H 4200 3800 60  0000 C CNN
	1    4200 3800
	1    0    0    -1  
$EndComp
Wire Wire Line
	6200 2350 6200 2400
Wire Wire Line
	5650 1600 6200 1600
Wire Wire Line
	5950 1600 5950 1550
Wire Wire Line
	6200 1600 6200 1850
Connection ~ 5950 1600
Wire Wire Line
	4200 3050 4200 3350
Wire Wire Line
	4200 2950 5250 2950
Wire Wire Line
	4200 2850 5250 2850
Wire Wire Line
	4150 2750 5250 2750
Wire Wire Line
	4200 2350 5000 2350
Wire Wire Line
	5000 2350 5000 2200
Wire Wire Line
	5000 2200 5250 2200
Wire Wire Line
	4200 2450 4900 2450
Wire Wire Line
	4900 2450 4900 2100
Wire Wire Line
	4900 2100 5250 2100
Wire Wire Line
	4200 2550 4800 2550
Wire Wire Line
	4800 2550 4800 2000
Wire Wire Line
	4800 2000 5250 2000
Wire Wire Line
	4200 2650 4700 2650
Wire Wire Line
	4700 2650 4700 1900
Wire Wire Line
	4700 1900 5250 1900
Text Notes 4850 3750 1    60   ~ 0
To Camera
Text Notes 5800 2700 1    60   ~ 0
16x2-line\nLCD Module
$Comp
L USB_B P1
U 1 1 5595F109
P 4500 3550
F 0 "P1" H 4700 3350 50  0000 C CNN
F 1 "USB_B" H 4450 3750 50  0000 C CNN
F 2 "" V 4450 3450 60  0000 C CNN
F 3 "" V 4450 3450 60  0000 C CNN
	1    4500 3550
	0    1    1    0   
$EndComp
Wire Wire Line
	4200 3650 4200 3800
$Comp
L VCC #PWR1
U 1 1 5596579A
P 1250 900
F 0 "#PWR1" H 1250 750 50  0001 C CNN
F 1 "VCC" H 1250 1050 50  0000 C CNN
F 2 "" H 1250 900 60  0000 C CNN
F 3 "" H 1250 900 60  0000 C CNN
	1    1250 900 
	1    0    0    -1  
$EndComp
Wire Wire Line
	1500 1150 1250 1150
Wire Wire Line
	1250 1150 1250 900 
$Comp
L GNDREF #PWR3
U 1 1 559657D2
P 4600 1300
F 0 "#PWR3" H 4600 1050 50  0001 C CNN
F 1 "GNDREF" H 4600 1150 50  0000 C CNN
F 2 "" H 4600 1300 60  0000 C CNN
F 3 "" H 4600 1300 60  0000 C CNN
	1    4600 1300
	1    0    0    -1  
$EndComp
Wire Wire Line
	4600 1150 4600 1300
Wire Wire Line
	4600 1150 4200 1150
$EndSCHEMATC
